{
  "project_info": {
    "project_number": "392738526707",
    "firebase_url": "https://satsang-c2245.firebaseio.com",
    "project_id": "satsang-c2245",
    "storage_bucket": "satsang-c2245.appspot.com"
  },
  "client": [
    {
      "client_info": {
        "mobilesdk_app_id": "1:392738526707:android:72661e640b921815",
        "android_client_info": {
          "package_name": "com.gurukul.satsang"
        }
      },
      "oauth_client": [
        {
          "client_id": "392738526707-ok2a82bhg2nmdh21u8dfcbij7eij5v32.apps.googleusercontent.com",
          "client_type": 3
        }
      ],
      "api_key": [
        {
          "current_key": "AIzaSyBZs8sjmYGIhWY_5fDHETaCj1wBYnElSuc"
        }
      ],
      "services": {
        "appinvite_service": {
          "other_platform_oauth_client": [
            {
              "client_id": "392738526707-ok2a82bhg2nmdh21u8dfcbij7eij5v32.apps.googleusercontent.com",
              "client_type": 3
            },
            {
              "client_id": "392738526707-9ds89klko0eci943hfu6tt10a0nmk0fm.apps.googleusercontent.com",
              "client_type": 2,
              "ios_info": {
                "bundle_id": "webzlabz.shreeswaminarayangurukulrajkot.satsang",
                "app_store_id": "552732601"
              }
            }
          ]
        }
      }
    },
    {
      "client_info": {
        "mobilesdk_app_id": "1:392738526707:android:d8fee1d83f27d67b",
        "android_client_info": {
          "package_name": "us.gurukul.satsangbooks.screens"
        }
      },
      "oauth_client": [
        {
          "client_id": "392738526707-m0em73bv1uqev1mg9ki62bpq1ptipu6j.apps.googleusercontent.com",
          "client_type": 1,
          "android_info": {
            "package_name": "us.gurukul.satsangbooks.screens",
            "certificate_hash": "6cce14b923bba03c7ab66683275da7c4576ac436"
          }
        },
        {
          "client_id": "392738526707-ok2a82bhg2nmdh21u8dfcbij7eij5v32.apps.googleusercontent.com",
          "client_type": 3
        }
      ],
      "api_key": [
        {
          "current_key": "AIzaSyBZs8sjmYGIhWY_5fDHETaCj1wBYnElSuc"
        }
      ],
      "services": {
        "appinvite_service": {
          "other_platform_oauth_client": [
            {
              "client_id": "392738526707-ok2a82bhg2nmdh21u8dfcbij7eij5v32.apps.googleusercontent.com",
              "client_type": 3
            },
            {
              "client_id": "392738526707-9ds89klko0eci943hfu6tt10a0nmk0fm.apps.googleusercontent.com",
              "client_type": 2,
              "ios_info": {
                "bundle_id": "webzlabz.shreeswaminarayangurukulrajkot.satsang",
                "app_store_id": "552732601"
              }
            }
          ]
        }
      }
    }
  ],
  "configuration_version": "1"
}